verify/utb/EF_I2S_tb.vcd
$date
	Tue Apr 16 21:05:35 2024
$end
$version
	Icarus Verilog
$end
$timescale
	1ps
$end
$scope module EF_I2S_tb $end
$var wire 1 ! sdo $end
$var wire 1 " ws $end
$var wire 1 # sd $end
$var wire 1 $ sck $end
$var wire 32 % fifo_rdata [31:0] $end
$var wire 1 & fifo_level_above $end
$var wire 5 ' fifo_level [4:0] $end
$var wire 1 ( fifo_full $end
$var parameter 32 ) FREQDIV $end
$var reg 1 * clk $end
$var reg 5 + fifo_level_threshold [4:0] $end
$var reg 1 , fifo_rd $end
$var reg 1 - rst_n $end
$var reg 6 . sample_size [5:0] $end
$var reg 8 / sck_prescaler [7:0] $end
$scope module MUV $end
$var wire 2 0 channels [1:0] $end
$var wire 1 * clk $end
$var wire 1 1 en $end
$var wire 5 2 fifo_level_threshold [4:0] $end
$var wire 1 , fifo_rd $end
$var wire 32 3 fifo_wdata [31:0] $end
$var wire 1 4 fifo_wr $end
$var wire 1 5 left_justified $end
$var wire 1 - rst_n $end
$var wire 32 6 sample_sign [31:0] $end
$var wire 6 7 sample_size [5:0] $end
$var wire 8 8 sck_prescaler [7:0] $end
$var wire 1 ! sdo $end
$var wire 1 9 sign_extend $end
$var wire 1 " ws $end
$var wire 1 # sdi $end
$var wire 1 $ sck $end
$var wire 1 : sample_rdy $end
$var wire 32 ; sample [31:0] $end
$var wire 32 < fifo_rdata [31:0] $end
$var wire 1 & fifo_level_above $end
$var wire 5 = fifo_level [4:0] $end
$var wire 1 ( fifo_full $end
$var wire 1 > fifo_empty $end
$var wire 2 ? current_channel [1:0] $end
$var parameter 32 @ AW $end
$var parameter 32 A DW $end
$var reg 5 B bit_ctr [4:0] $end
$var reg 8 C prescaler [7:0] $end
$var reg 1 $ sck_reg $end
$var reg 1 " ws_reg $end
$scope module I2SFIFO $end
$var wire 1 * clk $end
$var wire 1 > empty $end
$var wire 1 ( full $end
$var wire 32 D r_data [31:0] $end
$var wire 1 , rd $end
$var wire 1 - rst_n $end
$var wire 32 E w_data [31:0] $end
$var wire 1 F w_en $end
$var wire 1 4 wr $end
$var wire 4 G level [3:0] $end
$var parameter 32 H AW $end
$var parameter 32 I DEPTH $end
$var parameter 32 J DW $end
$var reg 1 K empty_next $end
$var reg 1 L empty_reg $end
$var reg 1 M full_next $end
$var reg 1 N full_reg $end
$var reg 4 O level_next [3:0] $end
$var reg 4 P level_reg [3:0] $end
$var reg 4 Q r_ptr_next [3:0] $end
$var reg 4 R r_ptr_reg [3:0] $end
$var reg 4 S r_ptr_succ [3:0] $end
$var reg 4 T w_ptr_next [3:0] $end
$var reg 4 U w_ptr_reg [3:0] $end
$var reg 4 V w_ptr_succ [3:0] $end
$upscope $end
$scope module RX $end
$var wire 1 * clk $end
$var wire 1 5 left_justified $end
$var wire 1 - rst_n $end
$var wire 1 $ sck $end
$var wire 1 W sck_npulse $end
$var wire 1 X sck_pulse $end
$var wire 1 " ws $end
$var wire 1 Y ws_dly_npulse $end
$var wire 1 Z ws_dly_ppulse $end
$var wire 1 [ ws_dly_pulse $end
$var wire 1 \ ws_npulse $end
$var wire 1 ] ws_ppulse $end
$var wire 1 ^ ws_pulse $end
$var wire 1 # sd $end
$var reg 1 _ last_nsck $end
$var reg 1 ` last_sck $end
$var reg 1 a last_ws $end
$var reg 1 b last_ws_dly $end
$var reg 1 : rdy $end
$var reg 32 c sample [31:0] $end
$var reg 32 d sr [31:0] $end
$var reg 1 e ws_dly $end
$var reg 1 f ws_dly0 $end
$upscope $end
$upscope $end
$scope module vip $end
$var wire 1 $ sck $end
$var wire 1 " ws $end
$var parameter 18 g LEFT $end
$var parameter 18 h RIGHT $end
$var reg 18 i ldata [17:0] $end
$var reg 18 j rdata [17:0] $end
$var reg 1 # sdo $end
$upscope $end
$upscope $end
$enddefinitions $end
$comment Show the parameter values. $end
$dumpall
b100000110100001111 h
b10000101000001011 g
b100000 J
b10000 I
b100 H
b100000 A
b100 @
b1010 )
$end
#0
$dumpvars
b100000110100001111 j
b10000101000001011 i
xf
xe
bx d
bx c
xb
xa
x`
x_
x^
x]
x\
x[
xZ
xY
xX
xW
bx V
bx U
bx T
bx S
bx R
bx Q
bx P
bx O
xN
xM
xL
xK
bx G
xF
bx E
bx D
bx C
bx B
bx ?
x>
b0xxxx =
bx <
bx ;
x:
19
b100 8
b10010 7
bx000000000000000000 6
15
x4
bx 3
b101 2
11
b11 0
b100 /
b10010 .
x-
0,
b101 +
0*
x(
b0xxxx '
x&
bx %
x$
x#
x"
z!
$end
#5000
0F
0\
b1 ?
0Z
b0 3
b0 E
b0 6
04
b0 O
1K
0M
b0 Q
b0 T
b1 S
b1 V
0X
0f
0e
b0 d
b0 ;
b0 c
0:
0&
b0 '
b0 =
b0 G
b0 P
1>
1L
0(
0N
b0 R
b0 U
b0 C
0$
b0 B
1"
0-
#50000
0^
0]
0[
0W
0Y
1a
0`
0_
0b
1*
#100000
0*
#150000
1*
#200000
0*
#250000
1*
#300000
0*
#350000
1*
#400000
0*
#450000
1*
#500000
0*
#550000
1*
#600000
0*
#650000
1*
#700000
0*
#750000
1*
#800000
0*
#850000
1*
#900000
0*
#950000
1*
#1000000
0*
#1050000
b1101000011110 j
1#
1X
1$
b100 C
1-
1*
#1100000
0*
#1150000
0X
b1 d
b11 C
1_
1`
1*
#1200000
0*
#1250000
b10 C
1*
#1300000
0*
#1350000
b1 C
1*
#1400000
0*
#1450000
b0 C
1*
#1500000
0*
#1550000
1^
1W
1\
b10 ?
b100 C
0$
b1 B
0"
1*
#1600000
0*
#1650000
b1 O
0K
b1 T
1F
0^
14
0\
0W
b11 C
1:
b1 ;
b1 c
0a
0`
0_
1*
#1700000
0*
#1750000
0F
04
b1 O
b1 T
b10 V
0:
b1 '
b1 =
b1 G
b1 P
0>
0L
b1 U
b10 C
b0 %
b0 <
b0 D
1*
#1800000
0*
#1850000
b1 C
1*
#1900000
0*
#1950000
b0 C
1*
#2000000
0*
#2050000
b100001010000010110 i
0#
1X
1$
b100 C
1*
#2100000
0*
#2150000
0X
b10 d
b11 C
1_
1`
1*
#2200000
0*
#2250000
b10 C
1*
#2300000
0*
#2350000
b1 C
1*
#2400000
0*
#2450000
b0 C
1*
#2500000
0*
#2550000
1W
b100 C
0$
b10 B
1*
#2600000
0*
#2650000
0W
b11 C
0`
0_
1*
#2700000
0*
#2750000
b10 C
1*
#2800000
0*
#2850000
b1 C
1*
#2900000
0*
#2950000
b0 C
1*
#3000000
0*
#3050000
b10100000101100 i
1#
1X
1$
b100 C
1*
#3100000
0*
#3150000
0X
b101 d
b11 C
1_
1`
1*
#3200000
0*
#3250000
b10 C
1*
#3300000
0*
#3350000
b1 C
1*
#3400000
0*
#3450000
b0 C
1*
#3500000
0*
#3550000
1W
b100 C
0$
b11 B
1*
#3600000
0*
#3650000
0W
b11 C
0`
0_
1*
#3700000
0*
#3750000
b10 C
1*
#3800000
0*
#3850000
b1 C
1*
#3900000
0*
#3950000
b0 C
1*
#4000000
0*
#4050000
b101000001011000 i
0#
1X
1$
b100 C
1*
#4100000
0*
#4150000
0X
b1010 d
b11 C
1_
1`
1*
#4200000
0*
#4250000
b10 C
1*
#4300000
0*
#4350000
b1 C
1*
#4400000
0*
#4450000
b0 C
1*
#4500000
0*
#4550000
1W
b100 C
0$
b100 B
1*
#4600000
0*
#4650000
0W
b11 C
0`
0_
1*
#4700000
0*
#4750000
b10 C
1*
#4800000
0*
#4850000
b1 C
1*
#4900000
0*
#4950000
b0 C
1*
#5000000
0*
#5050000
b1010000010110000 i
1X
1$
b100 C
1*
#5100000
0*
#5150000
0X
b10100 d
b11 C
1_
1`
1*
#5200000
0*
#5250000
b10 C
1*
#5300000
0*
#5350000
b1 C
1*
#5400000
0*
#5450000
b0 C
1*
#5500000
0*
#5550000
1W
b100 C
0$
b101 B
1*
#5600000
0*
#5650000
0W
b11 C
0`
0_
1*
#5700000
0*
#5750000
b10 C
1*
#5800000
0*
#5850000
b1 C
1*
#5900000
0*
#5950000
b0 C
1*
#6000000
0*
#6050000
b10100000101100000 i
1X
1$
b100 C
1*
#6100000
0*
#6150000
0X
b101000 d
b11 C
1_
1`
1*
#6200000
0*
#6250000
b10 C
1*
#6300000
0*
#6350000
b1 C
1*
#6400000
0*
#6450000
b0 C
1*
#6500000
0*
#6550000
1W
b100 C
0$
b110 B
1*
#6600000
0*
#6650000
0W
b11 C
0`
0_
1*
#6700000
0*
#6750000
b10 C
1*
#6800000
0*
#6850000
b1 C
1*
#6900000
0*
#6950000
b0 C
1*
#7000000
0*
#7050000
b101000001011000000 i
1X
1$
b100 C
1*
#7100000
0*
#7150000
0X
b1010000 d
b11 C
1_
1`
1*
#7200000
0*
#7250000
b10 C
1*
#7300000
0*
#7350000
b1 C
1*
#7400000
0*
#7450000
b0 C
1*
#7500000
0*
#7550000
1W
b100 C
0$
b111 B
1*
#7600000
0*
#7650000
0W
b11 C
0`
0_
1*
#7700000
0*
#7750000
b10 C
1*
#7800000
0*
#7850000
b1 C
1*
#7900000
0*
#7950000
b0 C
1*
#8000000
0*
#8050000
b10000010110000000 i
1#
1X
1$
b100 C
1*
#8100000
0*
#8150000
0X
b10100001 d
b11 C
1_
1`
1*
#8200000
0*
#8250000
b10 C
1*
#8300000
0*
#8350000
b1 C
1*
#8400000
0*
#8450000
b0 C
1*
#8500000
0*
#8550000
1W
b100 C
0$
b1000 B
1*
#8600000
0*
#8650000
0W
b11 C
0`
0_
1*
#8700000
0*
#8750000
b10 C
1*
#8800000
0*
#8850000
b1 C
1*
#8900000
0*
#8950000
b0 C
1*
#9000000
0*
#9050000
b100000101100000000 i
0#
1X
1$
b100 C
1*
#9100000
0*
#9150000
0X
b101000010 d
b11 C
1_
1`
1*
#9200000
0*
#9250000
b10 C
1*
#9300000
0*
#9350000
b1 C
1*
#9400000
0*
#9450000
b0 C
1*
#9500000
0*
#9550000
1W
b100 C
0$
b1001 B
1*
#9600000
0*
#9650000
0W
b11 C
0`
0_
1*
#9700000
0*
#9750000
b10 C
1*
#9800000
0*
#9850000
b1 C
1*
#9900000
0*
#9950000
b0 C
1*
#10000000
0*
#10050000
b1011000000000 i
1#
1X
1$
b100 C
1*
#10100000
0*
#10150000
0X
b1010000101 d
b11 C
1_
1`
1*
#10200000
0*
#10250000
b10 C
1*
#10300000
0*
#10350000
b1 C
1*
#10400000
0*
#10450000
b0 C
1*
#10500000
0*
#10550000
1W
b100 C
0$
b1010 B
1*
#10600000
0*
#10650000
0W
b11 C
0`
0_
1*
#10700000
0*
#10750000
b10 C
1*
#10800000
0*
#10850000
b1 C
1*
#10900000
0*
#10950000
b0 C
1*
#11000000
0*
#11050000
b10110000000000 i
0#
1X
1$
b100 C
1*
#11100000
0*
#11150000
0X
b10100001010 d
b11 C
1_
1`
1*
#11200000
0*
#11250000
b10 C
1*
#11300000
0*
#11350000
b1 C
1*
#11400000
0*
#11450000
b0 C
1*
#11500000
0*
#11550000
1W
b100 C
0$
b1011 B
1*
#11600000
0*
#11650000
0W
b11 C
0`
0_
1*
#11700000
0*
#11750000
b10 C
1*
#11800000
0*
#11850000
b1 C
1*
#11900000
0*
#11950000
b0 C
1*
#12000000
0*
#12050000
b101100000000000 i
1X
1$
b100 C
1*
#12100000
0*
#12150000
0X
b101000010100 d
b11 C
1_
1`
1*
#12200000
0*
#12250000
b10 C
1*
#12300000
0*
#12350000
b1 C
1*
#12400000
0*
#12450000
b0 C
1*
#12500000
0*
#12550000
1W
b100 C
0$
b1100 B
1*
#12600000
0*
#12650000
0W
b11 C
0`
0_
1*
#12700000
0*
#12750000
b10 C
1*
#12800000
0*
#12850000
b1 C
1*
#12900000
0*
#12950000
b0 C
1*
#13000000
0*
#13050000
b1011000000000000 i
1X
1$
b100 C
1*
#13100000
0*
#13150000
0X
b1010000101000 d
b11 C
1_
1`
1*
#13200000
0*
#13250000
b10 C
1*
#13300000
0*
#13350000
b1 C
1*
#13400000
0*
#13450000
b0 C
1*
#13500000
0*
#13550000
1W
b100 C
0$
b1101 B
1*
#13600000
0*
#13650000
0W
b11 C
0`
0_
1*
#13700000
0*
#13750000
b10 C
1*
#13800000
0*
#13850000
b1 C
1*
#13900000
0*
#13950000
b0 C
1*
#14000000
0*
#14050000
b10110000000000000 i
1X
1$
b100 C
1*
#14100000
0*
#14150000
0X
b10100001010000 d
b11 C
1_
1`
1*
#14200000
0*
#14250000
b10 C
1*
#14300000
0*
#14350000
b1 C
1*
#14400000
0*
#14450000
b0 C
1*
#14500000
0*
#14550000
1W
b100 C
0$
b1110 B
1*
#14600000
0*
#14650000
0W
b11 C
0`
0_
1*
#14700000
0*
#14750000
b10 C
1*
#14800000
0*
#14850000
b1 C
1*
#14900000
0*
#14950000
b0 C
1*
#15000000
0*
#15050000
b101100000000000000 i
1X
1$
b100 C
1*
#15100000
0*
#15150000
0X
b101000010100000 d
b11 C
1_
1`
1*
#15200000
0*
#15250000
b10 C
1*
#15300000
0*
#15350000
b1 C
1*
#15400000
0*
#15450000
b0 C
1*
#15500000
0*
#15550000
1W
b100 C
0$
b1111 B
1*
#15600000
0*
#15650000
0W
b11 C
0`
0_
1*
#15700000
0*
#15750000
b10 C
1*
#15800000
0*
#15850000
b1 C
1*
#15900000
0*
#15950000
b0 C
1*
#16000000
0*
#16050000
b11000000000000000 i
1#
1X
1$
b100 C
1*
#16100000
0*
#16150000
0X
b1010000101000001 d
b11 C
1_
1`
1*
#16200000
0*
#16250000
b10 C
1*
#16300000
0*
#16350000
b1 C
1*
#16400000
0*
#16450000
b0 C
1*
#16500000
0*
#16550000
1W
b100 C
0$
b10000 B
1*
#16600000
0*
#16650000
0W
b11 C
0`
0_
1*
#16700000
0*
#16750000
b10 C
1*
#16800000
0*
#16850000
b1 C
1*
#16900000
0*
#16950000
b0 C
1*
#17000000
0*
#17050000
b110000000000000000 i
0#
1X
1$
b100 C
1*
#17100000
0*
#17150000
0X
b10100001010000010 d
b11 C
1_
1`
1*
#17200000
0*
#17250000
b10 C
1*
#17300000
0*
#17350000
b1 C
1*
#17400000
0*
#17450000
b0 C
1*
#17500000
0*
#17550000
1W
b100 C
0$
b10001 B
1*
#17600000
0*
#17650000
0W
b11 C
0`
0_
1*
#17700000
0*
#17750000
b10 C
1*
#17800000
0*
#17850000
b1 C
1*
#17900000
0*
#17950000
b0 C
1*
#18000000
0*
#18050000
b100000000000000000 i
1#
1X
1$
b100 C
1*
#18100000
0*
#18150000
0X
b101000010100000101 d
b11 C
1_
1`
1*
#18200000
0*
#18250000
b10 C
1*
#18300000
0*
#18350000
b1 C
1*
#18400000
0*
#18450000
b0 C
1*
#18500000
0*
#18550000
1W
b100 C
0$
b10010 B
1*
#18600000
0*
#18650000
0W
b11 C
0`
0_
1*
#18700000
0*
#18750000
b10 C
1*
#18800000
0*
#18850000
b1 C
1*
#18900000
0*
#18950000
b0 C
1*
#19000000
0*
#19050000
b0 i
1X
1$
b100 C
1*
#19100000
0*
#19150000
0X
b1010000101000001011 d
b11 C
1_
1`
1*
#19200000
0*
#19250000
b10 C
1*
#19300000
0*
#19350000
b1 C
1*
#19400000
0*
#19450000
b0 C
1*
#19500000
0*
#19550000
1W
b100 C
0$
b10011 B
1*
#19600000
0*
#19650000
0W
b11 C
0`
0_
1*
#19700000
0*
#19750000
b10 C
1*
#19800000
0*
#19850000
b1 C
1*
#19900000
0*
#19950000
b0 C
1*
#20000000
0*
#20050000
0#
1X
1$
b100 C
1*
#20100000
0*
#20150000
0X
b10100001010000010110 d
b11 C
1_
1`
1*
#20200000
0*
#20250000
b10 C
1*
#20300000
0*
#20350000
b1 C
1*
#20400000
0*
#20450000
b0 C
1*
#20500000
0*
#20550000
1W
b100 C
0$
b10100 B
1*
#20600000
0*
#20650000
0W
b11 C
0`
0_
1*
#20700000
0*
#20750000
b10 C
1*
#20800000
0*
#20850000
b1 C
1*
#20900000
0*
#20950000
b0 C
1*
#21000000
0*
#21050000
1X
1$
b100 C
1*
#21100000
0*
#21150000
0X
b101000010100000101100 d
b11 C
1_
1`
1*
#21200000
0*
#21250000
b10 C
1*
#21300000
0*
#21350000
b1 C
1*
#21400000
0*
#21450000
b0 C
1*
#21500000
0*
#21550000
1W
b100 C
0$
b10101 B
1*
#21600000
0*
#21650000
0W
b11 C
0`
0_
1*
#21700000
0*
#21750000
b10 C
1*
#21800000
0*
#21850000
b1 C
1*
#21900000
0*
#21950000
b0 C
1*
#22000000
0*
#22050000
1X
1$
b100 C
1*
#22100000
0*
#22150000
0X
b1010000101000001011000 d
b11 C
1_
1`
1*
#22200000
0*
#22250000
b10 C
1*
#22300000
0*
#22350000
b1 C
1*
#22400000
0*
#22450000
b0 C
1*
#22500000
0*
#22550000
1W
b100 C
0$
b10110 B
1*
#22600000
0*
#22650000
0W
b11 C
0`
0_
1*
#22700000
0*
#22750000
b10 C
1*
#22800000
0*
#22850000
b1 C
1*
#22900000
0*
#22950000
b0 C
1*
#23000000
0*
#23050000
1X
1$
b100 C
1*
#23100000
0*
#23150000
0X
b10100001010000010110000 d
b11 C
1_
1`
1*
#23200000
0*
#23250000
b10 C
1*
#23300000
0*
#23350000
b1 C
1*
#23400000
0*
#23450000
b0 C
1*
#23500000
0*
#23550000
1W
b100 C
0$
b10111 B
1*
#23600000
0*
#23650000
0W
b11 C
0`
0_
1*
#23700000
0*
#23750000
b10 C
1*
#23800000
0*
#23850000
b1 C
1*
#23900000
0*
#23950000
b0 C
1*
#24000000
0*
#24050000
1X
1$
b100 C
1*
#24100000
0*
#24150000
0X
b101000010100000101100000 d
b11 C
1_
1`
1*
#24200000
0*
#24250000
b10 C
1*
#24300000
0*
#24350000
b1 C
1*
#24400000
0*
#24450000
b0 C
1*
#24500000
0*
#24550000
1W
b100 C
0$
b11000 B
1*
#24600000
0*
#24650000
0W
b11 C
0`
0_
1*
#24700000
0*
#24750000
b10 C
1*
#24800000
0*
#24850000
b1 C
1*
#24900000
0*
#24950000
b0 C
1*
#25000000
0*
#25050000
1X
1$
b100 C
1*
#25100000
0*
#25150000
0X
b1010000101000001011000000 d
b11 C
1_
1`
1*
#25200000
0*
#25250000
b10 C
1*
#25300000
0*
#25350000
b1 C
1*
#25400000
0*
#25450000
b0 C
1*
#25500000
0*
#25550000
1W
b100 C
0$
b11001 B
1*
#25600000
0*
#25650000
0W
b11 C
0`
0_
1*
#25700000
0*
#25750000
b10 C
1*
#25800000
0*
#25850000
b1 C
1*
#25900000
0*
#25950000
b0 C
1*
#26000000
0*
#26050000
1X
1$
b100 C
1*
#26100000
0*
#26150000
0X
b10100001010000010110000000 d
b11 C
1_
1`
1*
#26200000
0*
#26250000
b10 C
1*
#26300000
0*
#26350000
b1 C
1*
#26400000
0*
#26450000
b0 C
1*
#26500000
0*
#26550000
1W
b100 C
0$
b11010 B
1*
#26600000
0*
#26650000
0W
b11 C
0`
0_
1*
#26700000
0*
#26750000
b10 C
1*
#26800000
0*
#26850000
b1 C
1*
#26900000
0*
#26950000
b0 C
1*
#27000000
0*
#27050000
1X
1$
b100 C
1*
#27100000
0*
#27150000
0X
b101000010100000101100000000 d
b11 C
1_
1`
1*
#27200000
0*
#27250000
b10 C
1*
#27300000
0*
#27350000
b1 C
1*
#27400000
0*
#27450000
b0 C
1*
#27500000
0*
#27550000
1W
b100 C
0$
b11011 B
1*
#27600000
0*
#27650000
0W
b11 C
0`
0_
1*
#27700000
0*
#27750000
b10 C
1*
#27800000
0*
#27850000
b1 C
1*
#27900000
0*
#27950000
b0 C
1*
#28000000
0*
#28050000
1X
1$
b100 C
1*
#28100000
0*
#28150000
0X
b1010000101000001011000000000 d
b11 C
1_
1`
1*
#28200000
0*
#28250000
b10 C
1*
#28300000
0*
#28350000
b1 C
1*
#28400000
0*
#28450000
b0 C
1*
#28500000
0*
#28550000
1W
b100 C
0$
b11100 B
1*
#28600000
0*
#28650000
0W
b11 C
0`
0_
1*
#28700000
0*
#28750000
b10 C
1*
#28800000
0*
#28850000
b1 C
1*
#28900000
0*
#28950000
b0 C
1*
#29000000
0*
#29050000
1X
1$
b100 C
1*
#29100000
0*
#29150000
0X
b10100001010000010110000000000 d
b11 C
1_
1`
1*
#29200000
0*
#29250000
b10 C
1*
#29300000
0*
#29350000
b1 C
1*
#29400000
0*
#29450000
b0 C
1*
#29500000
0*
#29550000
1W
b100 C
0$
b11101 B
1*
#29600000
0*
#29650000
0W
b11 C
0`
0_
1*
#29700000
0*
#29750000
b10 C
1*
#29800000
0*
#29850000
b1 C
1*
#29900000
0*
#29950000
b0 C
1*
#30000000
0*
#30050000
1X
1$
b100 C
1*
#30100000
0*
#30150000
0X
b101000010100000101100000000000 d
b11 C
1_
1`
1*
#30200000
0*
#30250000
b10 C
1*
#30300000
0*
#30350000
b1 C
1*
#30400000
0*
#30450000
b0 C
1*
#30500000
0*
#30550000
1W
b100 C
0$
b11110 B
1*
#30600000
0*
#30650000
0W
b11 C
0`
0_
1*
#30700000
0*
#30750000
b10 C
1*
#30800000
0*
#30850000
b1 C
1*
#30900000
0*
#30950000
b0 C
1*
#31000000
0*
#31050000
1X
1$
b100 C
1*
#31100000
0*
#31150000
0X
b1010000101000001011000000000000 d
b11 C
1_
1`
1*
#31200000
0*
#31250000
b10 C
1*
#31300000
0*
#31350000
b1 C
1*
#31400000
0*
#31450000
b0 C
1*
#31500000
0*
#31550000
1W
b100 C
0$
b11111 B
1*
#31600000
0*
#31650000
0W
b11 C
0`
0_
1*
#31700000
0*
#31750000
b10 C
1*
#31800000
0*
#31850000
b1 C
1*
#31900000
0*
#31950000
b0 C
1*
#32000000
0*
#32050000
1X
1$
b100 C
1*
#32100000
0*
#32150000
0X
b10100001010000010110000000000000 d
b11 C
1_
1`
1*
#32200000
0*
#32250000
b10 C
1*
#32300000
0*
#32350000
b1 C
1*
#32400000
0*
#32450000
b0 C
1*
#32500000
0*
#32550000
1W
b100 C
0$
b0 B
1*
#32600000
0*
#32650000
0W
b11 C
0`
0_
1*
#32700000
0*
#32750000
b10 C
1*
#32800000
0*
#32850000
b1 C
1*
#32900000
0*
#32950000
b0 C
1*
#33000000
0*
#33050000
1X
1$
b100 C
1*
#33100000
0*
#33150000
0X
b1000010100000101100000000000000 d
b11 C
1_
1`
1*
#33200000
0*
#33250000
b10 C
1*
#33300000
0*
#33350000
b1 C
1*
#33400000
0*
#33450000
b0 C
1*
#33500000
0*
#33550000
1W
1^
b1 ?
1]
b100000110100001111 j
b100 C
0$
b1 B
1"
1*
#33600000
0*
#33650000
b10 O
b10 T
0^
1F
0]
14
b10000101000001011 3
b10000101000001011 E
0W
b11 C
1:
b1000010100000101100000000000000 ;
b1000010100000101100000000000000 c
1f
1a
0`
0_
1*
#33700000
0*
#33750000
0F
04
b10 O
b10 T
b11 V
0:
b10 '
b10 =
b10 G
b10 P
b10 U
b10 C
1*
#33800000
0*
#33850000
b1 C
1*
#33900000
0*
#33950000
b0 C
1*
#34000000
0*
#34050000
b1101000011110 j
1#
1X
1$
b100 C
1*
#34100000
0*
#34150000
0X
b10000101000001011000000000000001 d
b11 C
1_
1`
1*
#34200000
0*
#34250000
b10 C
1*
#34300000
0*
#34350000
b1 C
1*
#34400000
0*
#34450000
b0 C
1*
#34500000
0*
#34550000
1W
b100 C
0$
b10 B
1*
#34600000
0*
#34650000
1[
1Z
0W
b11 C
1e
0`
0_
1*
#34700000
0*
#34750000
0[
0Z
b10 C
1b
1*
#34800000
0*
#34850000
b1 C
1*
#34900000
0*
#34950000
b0 C
1*
#35000000
0*
#35050000
b11010000111100 j
0#
1X
1$
b100 C
1*
#35100000
0*
#35150000
0X
b1010000010110000000000000010 d
b11 C
1_
1`
1*
#35200000
0*
#35250000
b10 C
1*
#35300000
0*
#35350000
b1 C
1*
#35400000
0*
#35450000
b0 C
1*
#35500000
0*
#35550000
1W
b100 C
0$
b11 B
1*
#35600000
0*
#35650000
0W
b11 C
0`
0_
1*
#35700000
0*
#35750000
b10 C
1*
#35800000
0*
#35850000
b1 C
1*
#35900000
0*
#35950000
b0 C
1*
#36000000
0*
#36050000
b110100001111000 j
1X
1$
b100 C
1*
#36100000
0*
#36150000
0X
b10100000101100000000000000100 d
b11 C
1_
1`
1*
#36200000
0*
#36250000
b10 C
1*
#36300000
0*
#36350000
b1 C
1*
#36400000
0*
#36450000
b0 C
1*
#36500000
0*
#36550000
1W
b100 C
0$
b100 B
1*
#36600000
0*
#36650000
0W
b11 C
0`
0_
1*
#36700000
0*
#36750000
b10 C
1*
#36800000
0*
#36850000
b1 C
1*
#36900000
0*
#36950000
b0 C
1*
#37000000
0*
#37050000
b1101000011110000 j
1X
1$
b100 C
1*
#37100000
0*
#37150000
0X
b101000001011000000000000001000 d
b11 C
1_
1`
1*
#37200000
0*
#37250000
b10 C
1*
#37300000
0*
#37350000
b1 C
1*
#37400000
0*
#37450000
b0 C
1*
#37500000
0*
#37550000
1W
b100 C
0$
b101 B
1*
#37600000
0*
#37650000
0W
b11 C
0`
0_
1*
#37700000
0*
#37750000
b10 C
1*
#37800000
0*
#37850000
b1 C
1*
#37900000
0*
#37950000
b0 C
1*
#38000000
0*
#38050000
b11010000111100000 j
1X
1$
b100 C
1*
#38100000
0*
#38150000
0X
b1010000010110000000000000010000 d
b11 C
1_
1`
1*
#38200000
0*
#38250000
b10 C
1*
#38300000
0*
#38350000
b1 C
1*
#38400000
0*
#38450000
b0 C
1*
#38500000
0*
#38550000
1W
b100 C
0$
b110 B
1*
#38600000
0*
#38650000
0W
b11 C
0`
0_
1*
#38700000
0*
#38750000
b10 C
1*
#38800000
0*
#38850000
b1 C
1*
#38900000
0*
#38950000
b0 C
1*
#39000000
0*
#39050000
b110100001111000000 j
1X
1$
b100 C
1*
#39100000
0*
#39150000
0X
b10100000101100000000000000100000 d
b11 C
1_
1`
1*
#39200000
0*
#39250000
b10 C
1*
#39300000
0*
#39350000
b1 C
1*
#39400000
0*
#39450000
b0 C
1*
#39500000
0*
#39550000
1W
b100 C
0$
b111 B
1*
#39600000
0*
#39650000
0W
b11 C
0`
0_
1*
#39700000
0*
#39750000
b10 C
1*
#39800000
0*
#39850000
b1 C
1*
#39900000
0*
#39950000
b0 C
1*
#40000000
0*
#40050000
b101000011110000000 j
1#
1X
1$
b100 C
1*
#40100000
0*
#40150000
0X
b1000001011000000000000001000001 d
b11 C
1_
1`
1*
#40200000
0*
#40250000
b10 C
1*
#40300000
0*
#40350000
b1 C
1*
#40400000
0*
#40450000
b0 C
1*
#40500000
0*
#40550000
1W
b100 C
0$
b1000 B
1*
#40600000
0*
#40650000
0W
b11 C
0`
0_
1*
#40700000
0*
#40750000
b10 C
1*
#40800000
0*
#40850000
b1 C
1*
#40900000
0*
#40950000
b0 C
1*
#41000000
0*
#41050000
b10000111100000000 j
1X
1$
b100 C
1*
#41100000
0*
#41150000
0X
b10000010110000000000000010000011 d
b11 C
1_
1`
1*
#41200000
0*
#41250000
b10 C
1*
#41300000
0*
#41350000
b1 C
1*
#41400000
0*
#41450000
b0 C
1*
#41500000
0*
#41550000
1W
b100 C
0$
b1001 B
1*
#41600000
0*
#41650000
0W
b11 C
0`
0_
1*
#41700000
0*
#41750000
b10 C
1*
#41800000
0*
#41850000
b1 C
1*
#41900000
0*
#41950000
b0 C
1*
#42000000
0*
#42050000
b100001111000000000 j
0#
1X
1$
b100 C
1*
#42100000
0*
#42150000
0X
b101100000000000000100000110 d
b11 C
1_
1`
1*
#42200000
0*
#42250000
b10 C
1*
#42300000
0*
#42350000
b1 C
1*
#42400000
0*
#42450000
b0 C
1*
#42500000
0*
#42550000
1W
b100 C
0$
b1010 B
1*
#42600000
0*
#42650000
0W
b11 C
0`
0_
1*
#42700000
0*
#42750000
b10 C
1*
#42800000
0*
#42850000
b1 C
1*
#42900000
0*
#42950000
b0 C
1*
#43000000
0*
#43050000
b11110000000000 j
1#
1X
1$
b100 C
1*
#43100000
0*
#43150000
0X
b1011000000000000001000001101 d
b11 C
1_
1`
1*
#43200000
0*
#43250000
b10 C
1*
#43300000
0*
#43350000
b1 C
1*
#43400000
0*
#43450000
b0 C
1*
#43500000
0*
#43550000
1W
b100 C
0$
b1011 B
1*
#43600000
0*
#43650000
0W
b11 C
0`
0_
1*
#43700000
0*
#43750000
b10 C
1*
#43800000
0*
#43850000
b1 C
1*
#43900000
0*
#43950000
b0 C
1*
#44000000
0*
#44050000
b111100000000000 j
0#
1X
1$
b100 C
1*
#44100000
0*
#44150000
0X
b10110000000000000010000011010 d
b11 C
1_
1`
1*
#44200000
0*
#44250000
b10 C
1*
#44300000
0*
#44350000
b1 C
1*
#44400000
0*
#44450000
b0 C
1*
#44500000
0*
#44550000
1W
b100 C
0$
b1100 B
1*
#44600000
0*
#44650000
0W
b11 C
0`
0_
1*
#44700000
0*
#44750000
b10 C
1*
#44800000
0*
#44850000
b1 C
1*
#44900000
0*
#44950000
b0 C
1*
#45000000
0*
#45050000
b1111000000000000 j
1X
1$
b100 C
1*
#45100000
0*
#45150000
0X
b101100000000000000100000110100 d
b11 C
1_
1`
1*
#45200000
0*
#45250000
b10 C
1*
#45300000
0*
#45350000
b1 C
1*
#45400000
0*
#45450000
b0 C
1*
#45500000
0*
#45550000
1W
b100 C
0$
b1101 B
1*
#45600000
0*
#45650000
0W
b11 C
0`
0_
1*
#45700000
0*
#45750000
b10 C
1*
#45800000
0*
#45850000
b1 C
1*
#45900000
0*
#45950000
b0 C
1*
#46000000
0*
#46050000
b11110000000000000 j
1X
1$
b100 C
1*
#46100000
0*
#46150000
0X
b1011000000000000001000001101000 d
b11 C
1_
1`
1*
#46200000
0*
#46250000
b10 C
1*
#46300000
0*
#46350000
b1 C
1*
#46400000
0*
#46450000
b0 C
1*
#46500000
0*
